"id";"nameFr";"nameEn";"deployed_default";"position"
1;"Glucide";"Carbohydrate";0;1
2;"Lipide";"Lipid";0;2
3;"Protéines";"Protein";0;3
4;"Vitamines";"Vitamins";1;5
5;"Minéraux";"Minerals";0;6
8;"Fibres";"Fibers";0;4
9;"Calorie";"Calory";0;0
